<?xml version="1.0" encoding="utf-8"?>
<!-- Svg Vector Icons : http://www.onlinewebfonts.com/icon -->
<!DOCTYPE svg PUBLIC "-//W3C//DTD SVG 1.1//EN" "http://www.w3.org/Graphics/SVG/1.1/DTD/svg11.dtd">
<svg version="1.1" xmlns="http://www.w3.org/2000/svg" xmlns:xlink="http://www.w3.org/1999/xlink" x="0px" y="0px" viewBox="0 0 1000 1000" enable-background="new 0 0 1000 1000" xml:space="preserve">
<metadata> Svg Vector Icons : http://www.onlinewebfonts.com/icon </metadata>
<g><path d="M500,71.3c-135.3,0-257.8,54.8-346.5,143.5L10,71.3v367.5h367.5L240.1,301.4c66.5-66.5,158.4-107.6,259.9-107.6c203,0,367.5,164.5,367.5,367.5c0,109.8-48.1,208.3-124.4,275.6l81,91.9C925.8,839,990,707.6,990,561.3C990,290.6,770.6,71.3,500,71.3L500,71.3z"/></g>
</svg>