<?xml version="1.0" encoding="UTF-8"?>
<svg width="298px" height="150px" viewBox="0 0 298 150" version="1.1" xmlns="http://www.w3.org/2000/svg" xmlns:xlink="http://www.w3.org/1999/xlink">
    <!-- Generator: Sketch 59.1 (86144) - https://sketch.com -->
    <title>mcd4</title>
    <desc>Created with Sketch.</desc>
    <g id="Page-1" stroke="none" stroke-width="1" fill="none" fill-rule="evenodd">
        <g id="mcd4" fill-rule="nonzero">
            <path d="M45.6,3.5 C46.2,1.4 48.2,0 50.3,0 L292.8,0 C296.1,0 298.5,3.2 297.5,6.4 L252.4,146.5 C251.8,148.6 249.8,150 247.7,150 L5.2,150 C1.9,150 -0.5,146.8 0.5,143.6 L45.6,3.5 Z" id="Path" fill="#41B384"></path>
            <g id="Group" transform="translate(59.000000, 25.000000)" fill="#FFFFFF">
                <path d="M80,14 L80,14 L80,14 L80,14 C71.1,4.7 58.9,0.2 43.7,0.2 L4.1,0.2 L0,16.4 L11.5,16.4 L11.5,97.4 L43.6,97.4 C58.8,97.4 71,92.9 79.9,83.8 L79.9,83.8 L79.9,83.8 C88.7,74.6 93,63 93,49 C93.1,34.9 88.8,23.2 80,14 L80,14 Z M74.6,48.8 C74.6,60 71.5,67.9 65.7,73.2 L65.7,73.2 C59.7,78.5 52.2,81.3 42.9,81.3 L29.5,81.3 L29.5,16.5 L42.8,16.5 C52.2,16.5 59.8,19.2 65.6,24.7 L65.6,24.7 L65.6,24.7 L65.6,24.7 C71.5,30 74.6,37.9 74.6,48.8 Z" id="Shape"></path>
                <polygon id="Path" points="167.6 60.8 167.6 32.8 150.1 32.8 150.1 60.8 125.1 60.8 151.2 0.3 132.5 0.3 105.5 64 105.5 76.5 150.1 76.5 150.1 97.4 167.6 97.4 167.6 76.5 178.1 76.5 184 60.8"></polygon>
            </g>
        </g>
    </g>
</svg>