<?xml version="1.0" encoding="UTF-8"?>
<svg width="23px" height="23px" viewBox="0 0 23 23" version="1.1" xmlns="http://www.w3.org/2000/svg" xmlns:xlink="http://www.w3.org/1999/xlink">
    <g id="Oval-Copy" stroke="none" stroke-width="1" fill="none" fill-rule="evenodd">
        <circle fill="#4a4a4a" cx="11.5" cy="11.5" r="11.5"></circle>
        <path d="M11.5,13.7484958 C11.8252962,13.7484958 12.0899536,14.0219025 12.0899536,14.3565197 C12.0899536,14.6902625 11.8252962,14.9633778 11.5,14.9633778 C11.1747038,14.9633778 10.9100464,14.6902625 10.9100464,14.3565197 C10.9100464,14.0219025 11.1747038,13.7484958 11.5,13.7484958 Z M8.54796497,10.1050155 L14.452035,10.1050155 C14.7764812,10.1050155 15.0419887,10.3784223 15.0419887,10.7130395 L15.0419887,12.5347796 L7.95801133,12.5347796 L7.95801133,10.7130395 C7.95801133,10.3784223 8.22380216,10.1050155 8.54796497,10.1050155 Z M9.72900567,7.06955924 C9.07926327,7.06955924 8.54796497,7.61491537 8.54796497,8.28327538 L8.54796497,8.36401491 C7.53410613,8.63042618 6.77697063,9.58356062 6.77697063,10.7130395 L6.77697063,14.9633778 C6.77697063,15.9643147 7.57490984,16.7851179 8.54796497,16.7851179 L8.54796497,18 L9.72900567,18 L9.72900567,16.7851179 L13.2709943,16.7851179 L13.2709943,18 L14.452035,18 L14.452035,16.7851179 C15.4250902,16.7851179 16.2230294,15.9643147 16.2230294,14.9633778 L16.2230294,10.7130395 C16.2230294,9.58356062 15.4658939,8.63042618 14.452035,8.36401491 L14.452035,8.28327538 C14.452035,7.61491537 13.9218702,7.06955924 13.2709943,7.06955924 L9.72900567,7.06955924 Z M11.5,4 L6,5.88528242 L6.374034,7.03895401 L11.5,5.28075618 L16.625966,7.03895401 L17,5.88528242 L11.5,4 Z" id="Fill-1" fill="#FFFFFF"></path>
    </g>
</svg>
