<svg width="512" height="512" xmlns="http://www.w3.org/2000/svg">

 <g>
  <title>background</title>
  <rect fill="none" id="canvas_background" height="402" width="582" y="-1" x="-1"/>
 </g>
 <g>
  <title>Layer 1</title>
  <path id="svg_1" fill="#d0001c" d="m0,256c0,141.397 114.603,256 256,256s256,-114.603 256,-256s-114.603,-256 -256,-256s-256,114.613 -256,256z"/>
  <g id="svg_8"/>
  <g id="svg_9"/>
  <g id="svg_10"/>
  <g id="svg_11"/>
  <g id="svg_12"/>
  <g id="svg_13"/>
  <g id="svg_14"/>
  <g id="svg_15"/>
  <g id="svg_16"/>
  <g id="svg_17"/>
  <g id="svg_18"/>
  <g id="svg_19"/>
  <g id="svg_20"/>
  <g id="svg_21"/>
  <g id="svg_22"/>
  <g stroke="null" id="svg_46">
   <g stroke="null" transform="matrix(0.700848839960122,0,0,0.700848839960122,-1011.2564825355389,-980.532365264874) " id="svg_29">
    <g stroke="null" id="svg_27">
     <path stroke="null" id="svg_30" d="m1604.135442,1880.199173c0,22.95 10.2,43.35 25.5,56.1l0,45.9c0,15.3 10.2,25.5 25.5,25.5l25.5,0c15.3,0 25.5,-10.2 25.5,-25.5l0,-25.5l204,0l0,25.5c0,15.3 10.2,25.5 25.5,25.5l25.5,0c15.3,0 25.5,-10.2 25.5,-25.5l0,-45.9c15.3,-12.75 25.5,-33.149 25.5,-56.1l0,-255c0,-89.25 -91.8,-102 -204,-102s-204,12.75 -204,102l0,255zm89.25,25.5c-20.4,0 -38.25,-17.85 -38.25,-38.25s17.85,-38.25 38.25,-38.25s38.25,17.85 38.25,38.25s-17.85,38.25 -38.25,38.25zm229.5,0c-20.4,0 -38.25,-17.85 -38.25,-38.25s17.85,-38.25 38.25,-38.25s38.25,17.85 38.25,38.25s-17.85,38.25 -38.25,38.25zm38.25,-153l-306,0l0,-127.5l306,0l0,127.5z" fill="#ffffff"/>
    </g>
   </g>
   <g stroke="null" transform="matrix(0.700848839960122,0,0,0.700848839960122,-1011.2564825355389,-980.532365264874) " id="svg_31"/>
   <g stroke="null" transform="matrix(0.700848839960122,0,0,0.700848839960122,-1011.2564825355389,-980.532365264874) " id="svg_32"/>
   <g stroke="null" transform="matrix(0.700848839960122,0,0,0.700848839960122,-1011.2564825355389,-980.532365264874) " id="svg_33"/>
   <g stroke="null" transform="matrix(0.700848839960122,0,0,0.700848839960122,-1011.2564825355389,-980.532365264874) " id="svg_34"/>
   <g stroke="null" transform="matrix(0.700848839960122,0,0,0.700848839960122,-1011.2564825355389,-980.532365264874) " id="svg_35"/>
   <g stroke="null" transform="matrix(0.700848839960122,0,0,0.700848839960122,-1011.2564825355389,-980.532365264874) " id="svg_36"/>
   <g stroke="null" transform="matrix(0.700848839960122,0,0,0.700848839960122,-1011.2564825355389,-980.532365264874) " id="svg_37"/>
   <g stroke="null" transform="matrix(0.700848839960122,0,0,0.700848839960122,-1011.2564825355389,-980.532365264874) " id="svg_38"/>
   <g stroke="null" transform="matrix(0.700848839960122,0,0,0.700848839960122,-1011.2564825355389,-980.532365264874) " id="svg_39"/>
   <g stroke="null" transform="matrix(0.700848839960122,0,0,0.700848839960122,-1011.2564825355389,-980.532365264874) " id="svg_40"/>
   <g stroke="null" transform="matrix(0.700848839960122,0,0,0.700848839960122,-1011.2564825355389,-980.532365264874) " id="svg_41"/>
   <g stroke="null" transform="matrix(0.700848839960122,0,0,0.700848839960122,-1011.2564825355389,-980.532365264874) " id="svg_42"/>
   <g stroke="null" transform="matrix(0.700848839960122,0,0,0.700848839960122,-1011.2564825355389,-980.532365264874) " id="svg_43"/>
   <g stroke="null" transform="matrix(0.700848839960122,0,0,0.700848839960122,-1011.2564825355389,-980.532365264874) " id="svg_44"/>
   <g stroke="null" transform="matrix(0.700848839960122,0,0,0.700848839960122,-1011.2564825355389,-980.532365264874) " id="svg_45"/>
  </g>
 </g>
</svg>