<svg width="512" height="512" xmlns="http://www.w3.org/2000/svg">

 <g>
  <title>background</title>
  <rect fill="none" id="canvas_background" height="402" width="582" y="-1" x="-1"/>
 </g>
 <g>
  <title>Layer 1</title>
  <g transform="rotate(180 255.99999999999997,256) " id="svg_1">
   <path id="svg_2" fill="#384cd6" d="m256,0l-110,196l110,316l153.817,-194.522c27.597,-34.895 42.183,-76.901 42.183,-121.478c0,-108.075 -87.925,-196 -196,-196z"/>
   <path id="svg_3" fill="#384cd6" d="m60,196c0,44.577 14.587,86.584 42.184,121.479c-0.001,-0.001 153.816,194.521 153.816,194.521l0,-512c-108.075,0 -196,87.925 -196,196z"/>
   <path id="svg_4" fill="#384cd6" d="m256,60l-68,136l68,136c75.111,0 136,-60.889 136,-136s-60.889,-136 -136,-136z"/>
   <path id="svg_5" fill="#384cd6" d="m120,196c0,75.111 60.889,136 136,136l0,-272c-75.111,0 -136,60.889 -136,136z"/>
  </g>
 </g>
</svg>