<?xml version="1.0" encoding="utf-8"?>
<svg version="1.1" id="_x30_" xmlns="http://www.w3.org/2000/svg" xmlns:xlink="http://www.w3.org/1999/xlink" x="0px" y="0px"
	 viewBox="0 0 29 35" style="enable-background:new 0 0 29 35;" xml:space="preserve">
<style type="text/css">
	.st0{fill:#d53e07;}
</style>
<path id="_x31_" class="st0" d="M10.817,14.496c0-2.03,1.652-3.683,3.682-3.683s3.683,1.653,3.683,3.683
	c0,2.032-1.652,3.684-3.683,3.684S10.817,16.529,10.817,14.496 M20.539,14.496c0-3.329-2.71-6.039-6.039-6.039
	s-6.039,2.71-6.039,6.039c0,3.33,2.71,6.04,6.039,6.04S20.539,17.826,20.539,14.496 M24.767,14.497
	c0-5.662-4.605-10.268-10.268-10.268c-5.661,0-10.267,4.606-10.267,10.268c0,2.823,1.166,5.41,2.998,7.244
	c0.216,0.216,0.515,0.356,0.847,0.356c0.65,0,1.177-0.528,1.177-1.178c0-0.337-0.142-0.64-0.368-0.855
	c-1.42-1.43-2.298-3.398-2.298-5.567c0-4.363,3.549-7.912,7.911-7.912c4.363,0,7.913,3.549,7.913,7.912
	c0,2.181-0.888,4.158-2.32,5.59L9.838,30.341l1.666,1.665L21.77,21.74C23.621,19.881,24.767,17.32,24.767,14.497 M12.827,33.33
	l1.67,1.67l10.259-10.259c2.62-2.624,4.24-6.245,4.24-10.244C28.996,6.491,22.506,0,14.5,0S0.004,6.491,0.004,14.496
	c0,3.997,1.624,7.628,4.233,10.237c0.222,0.222,0.515,0.352,0.846,0.352c0.65,0,1.178-0.528,1.178-1.177
	c0-0.331-0.141-0.632-0.361-0.852c-2.179-2.179-3.54-5.219-3.54-8.559c0-6.694,5.447-12.141,12.141-12.141
	c6.694,0,12.141,5.447,12.141,12.141c0,3.348-1.362,6.383-3.562,8.582L12.827,33.33z"/>
</svg>
